…
data_new
```

    ## # A tibble: 160 x 4
    ##    arm   id    weeks value
    ##    <chr> <chr> <chr> <dbl>
    ##  1 con   01    1      0.2 
    ##  2 con   01    2     -1.31
    ##  3 con   01    3      0.66
    ##  4 con   01    4      1.96
    ##  5 con   01    5      0.23
    ##  6 con   01    6      1.09
    ##  7 con   01    7      0.05
    ##  8 con   01    8      1.94
    ##  9 con   02    1      1.13
    ## 10 con   02    2     -0.88
    ## # ... with 150 more rows
…
}
```

Apply function to the columns of iris_with_missing using a map statement

``` r
output = map(iris_with_missing, fill_missing)

iris_no_missing = bind_rows(output)

iris_no_missing
```

    ## # A tibble: 150 x 5
    ##    sepal_length sepal_width petal_length petal_width species
    ##           <dbl>       <dbl>        <dbl>       <dbl> <chr>  
    ##  1         5.1          3.5         1.4         0.2  setosa 
    ##  2         4.9          3           1.4         0.2  setosa 
    ##  3         4.7          3.2         1.3         0.2  setosa 
    ##  4         4.6          3.1         1.5         1.19 setosa 
    ##  5         5            3.6         1.4         0.2  setosa 
    ##  6         5.4          3.9         1.7         0.4  setosa 
    ##  7         5.82         3.4         1.4         0.3  setosa 
    ##  8         5            3.4         1.5         0.2  setosa 
    ##  9         4.4          2.9         1.4         0.2  setosa 
    ## 10         4.9          3.1         3.77        0.1  setosa 
    ## # ... with 140 more rows
